{
  "tenants": [
    "153bd309-b662-47fb-ae10-cbf343971093",
    "ef198b37-f8fc-4bd1-9229-63ee0bf29354",
    "c46f8418-8630-4fa4-8c78-2d4f9d2ce71c"
  ],
  "client_id": "fb8ca6c5-949f-4e7f-a092-e549f7dfe7ea",
  "scope": "https://graph.microsoft.com/.default",
  "client_secret": "sCXHGP987#}rsagsrBJ95~%",
  "grant_type": "client_credentials"
}